%YAML 1.1
%TAG !u! tag:unity3d.com,2011:
--- !u!65 &2738856404003245788
BoxCollider:
  m_ObjectHideFlags: 0
  m_CorrespondingSourceObject: {fileID: 0}
  m_PrefabInstance: {fileID: 0}
  m_PrefabAsset: {fileID: 0}
  m_GameObject: {fileID: 3514950668496272490}
  m_Material: {fileID: 0}
  m_IsTrigger: 0
  m_Enabled: 1
  serializedVersion: 2
  m_Size: {x: 0.7, y: 1.5, z: 1.5}
  m_Center: {x: 0, y: 0.7, z: 0}
--- !u!114 &3514950668496272491
MonoBehaviour:
  m_ObjectHideFlags: 0
  m_CorrespondingSourceObject: {fileID: 0}
  m_PrefabInstance: {fileID: 0}
  m_PrefabAsset: {fileID: 0}
  m_GameObject: {fileID: 3514950668496272490}
  m_Enabled: 1
  m_EditorHideFlags: 0
  m_Script: {fileID: 11500000, guid: 8872b757d060dd64f973e7e398246acb, type: 3}
  m_Name: 
  m_EditorClassIdentifier: 
  productName: product
--- !u!1001 &4892721280156083555
PrefabInstance:
  m_ObjectHideFlags: 0
  serializedVersion: 2
  m_Modification:
    m_TransformParent: {fileID: 0}
    m_Modifications:
    - target: {fileID: -927199367670048503, guid: 6668cce74b7e83641ac65b416653bb18,
        type: 3}
      propertyPath: m_Name
      value: EtagereDefault
      objectReference: {fileID: 0}
    - target: {fileID: -4216859302048453862, guid: 6668cce74b7e83641ac65b416653bb18,
        type: 3}
      propertyPath: m_LocalPosition.x
      value: 3.5131226
      objectReference: {fileID: 0}
    - target: {fileID: -4216859302048453862, guid: 6668cce74b7e83641ac65b416653bb18,
        type: 3}
      propertyPath: m_LocalPosition.y
      value: -2.6051912
      objectReference: {fileID: 0}
    - target: {fileID: -4216859302048453862, guid: 6668cce74b7e83641ac65b416653bb18,
        type: 3}
      propertyPath: m_LocalPosition.z
      value: 4.9102783
      objectReference: {fileID: 0}
    - target: {fileID: -4216859302048453862, guid: 6668cce74b7e83641ac65b416653bb18,
        type: 3}
      propertyPath: m_LocalRotation.x
      value: 0
      objectReference: {fileID: 0}
    - target: {fileID: -4216859302048453862, guid: 6668cce74b7e83641ac65b416653bb18,
        type: 3}
      propertyPath: m_LocalRotation.y
      value: 0
      objectReference: {fileID: 0}
    - target: {fileID: -4216859302048453862, guid: 6668cce74b7e83641ac65b416653bb18,
        type: 3}
      propertyPath: m_LocalRotation.z
      value: 0
      objectReference: {fileID: 0}
    - target: {fileID: -4216859302048453862, guid: 6668cce74b7e83641ac65b416653bb18,
        type: 3}
      propertyPath: m_LocalRotation.w
      value: 1
      objectReference: {fileID: 0}
    - target: {fileID: -4216859302048453862, guid: 6668cce74b7e83641ac65b416653bb18,
        type: 3}
      propertyPath: m_RootOrder
      value: 0
      objectReference: {fileID: 0}
    - target: {fileID: -4216859302048453862, guid: 6668cce74b7e83641ac65b416653bb18,
        type: 3}
      propertyPath: m_LocalEulerAnglesHint.x
      value: 0
      objectReference: {fileID: 0}
    - target: {fileID: -4216859302048453862, guid: 6668cce74b7e83641ac65b416653bb18,
        type: 3}
      propertyPath: m_LocalEulerAnglesHint.y
      value: 0
      objectReference: {fileID: 0}
    - target: {fileID: -4216859302048453862, guid: 6668cce74b7e83641ac65b416653bb18,
        type: 3}
      propertyPath: m_LocalEulerAnglesHint.z
      value: 0
      objectReference: {fileID: 0}
    m_RemovedComponents: []
  m_SourcePrefab: {fileID: 100100000, guid: 6668cce74b7e83641ac65b416653bb18, type: 3}
--- !u!1 &3514950668496272490 stripped
GameObject:
  m_CorrespondingSourceObject: {fileID: -927199367670048503, guid: 6668cce74b7e83641ac65b416653bb18,
    type: 3}
  m_PrefabInstance: {fileID: 4892721280156083555}
  m_PrefabAsset: {fileID: 0}
