%YAML 1.1
%TAG !u! tag:unity3d.com,2011:
--- !u!114 &9214126126047881721
MonoBehaviour:
  m_ObjectHideFlags: 0
  m_CorrespondingSourceObject: {fileID: 0}
  m_PrefabInstance: {fileID: 0}
  m_PrefabAsset: {fileID: 0}
  m_GameObject: {fileID: 8521257483296657057}
  m_Enabled: 1
  m_EditorHideFlags: 0
  m_Script: {fileID: 11500000, guid: 8872b757d060dd64f973e7e398246acb, type: 3}
  m_Name: 
  m_EditorClassIdentifier: 
--- !u!65 &4511414798424145461
BoxCollider:
  m_ObjectHideFlags: 0
  m_CorrespondingSourceObject: {fileID: 0}
  m_PrefabInstance: {fileID: 0}
  m_PrefabAsset: {fileID: 0}
  m_GameObject: {fileID: 8521257483296657057}
  m_Material: {fileID: 0}
  m_IsTrigger: 0
  m_Enabled: 1
  serializedVersion: 2
  m_Size: {x: 0.7, y: 1.5, z: 1.5}
  m_Center: {x: 0, y: 0.7, z: 0}
--- !u!1001 &387445490742335400
PrefabInstance:
  m_ObjectHideFlags: 0
  serializedVersion: 2
  m_Modification:
    m_TransformParent: {fileID: 0}
    m_Modifications:
    - target: {fileID: -927199367670048503, guid: f792fb6410a4dad468452d70f437cca6,
        type: 3}
      propertyPath: m_Name
      value: EtagereBouteilleDeLait Variant
      objectReference: {fileID: 0}
    - target: {fileID: -4216859302048453862, guid: f792fb6410a4dad468452d70f437cca6,
        type: 3}
      propertyPath: m_LocalPosition.x
      value: -107.01316
      objectReference: {fileID: 0}
    - target: {fileID: -4216859302048453862, guid: f792fb6410a4dad468452d70f437cca6,
        type: 3}
      propertyPath: m_LocalPosition.y
      value: 0.6048088
      objectReference: {fileID: 0}
    - target: {fileID: -4216859302048453862, guid: f792fb6410a4dad468452d70f437cca6,
        type: 3}
      propertyPath: m_LocalPosition.z
      value: 162.66133
      objectReference: {fileID: 0}
    - target: {fileID: -4216859302048453862, guid: f792fb6410a4dad468452d70f437cca6,
        type: 3}
      propertyPath: m_LocalRotation.x
      value: 0
      objectReference: {fileID: 0}
    - target: {fileID: -4216859302048453862, guid: f792fb6410a4dad468452d70f437cca6,
        type: 3}
      propertyPath: m_LocalRotation.y
      value: 0
      objectReference: {fileID: 0}
    - target: {fileID: -4216859302048453862, guid: f792fb6410a4dad468452d70f437cca6,
        type: 3}
      propertyPath: m_LocalRotation.z
      value: 0
      objectReference: {fileID: 0}
    - target: {fileID: -4216859302048453862, guid: f792fb6410a4dad468452d70f437cca6,
        type: 3}
      propertyPath: m_LocalRotation.w
      value: 1
      objectReference: {fileID: 0}
    - target: {fileID: -4216859302048453862, guid: f792fb6410a4dad468452d70f437cca6,
        type: 3}
      propertyPath: m_RootOrder
      value: 0
      objectReference: {fileID: 0}
    - target: {fileID: -4216859302048453862, guid: f792fb6410a4dad468452d70f437cca6,
        type: 3}
      propertyPath: m_LocalEulerAnglesHint.x
      value: 0
      objectReference: {fileID: 0}
    - target: {fileID: -4216859302048453862, guid: f792fb6410a4dad468452d70f437cca6,
        type: 3}
      propertyPath: m_LocalEulerAnglesHint.y
      value: 0
      objectReference: {fileID: 0}
    - target: {fileID: -4216859302048453862, guid: f792fb6410a4dad468452d70f437cca6,
        type: 3}
      propertyPath: m_LocalEulerAnglesHint.z
      value: 0
      objectReference: {fileID: 0}
    m_RemovedComponents: []
  m_SourcePrefab: {fileID: 100100000, guid: f792fb6410a4dad468452d70f437cca6, type: 3}
--- !u!1 &8521257483296657057 stripped
GameObject:
  m_CorrespondingSourceObject: {fileID: -927199367670048503, guid: f792fb6410a4dad468452d70f437cca6,
    type: 3}
  m_PrefabInstance: {fileID: 387445490742335400}
  m_PrefabAsset: {fileID: 0}
