%YAML 1.1
%TAG !u! tag:unity3d.com,2011:
--- !u!114 &11400000
MonoBehaviour:
  m_ObjectHideFlags: 0
  m_CorrespondingSourceObject: {fileID: 0}
  m_PrefabInstance: {fileID: 0}
  m_PrefabAsset: {fileID: 0}
  m_GameObject: {fileID: 0}
  m_Enabled: 1
  m_EditorHideFlags: 0
  m_Script: {fileID: 11500000, guid: ff49b6588420da64aa0bd0a0200b33ce, type: 3}
  m_Name: New Item
  m_EditorClassIdentifier: 
  name: New Item
  icon: {fileID: 0}
  isDefaultItem: 0
  weigth: 0
